hwdesign/circle_fsm_32bit_simple_tb.vcd
$date
	Mon Dec 08 13:23:29 2025
$end
$version
	Icarus Verilog
$end
$timescale
	1ps
$end
$scope module circle_fsm_32bit_simple_tb $end
$var wire 32 ! result_y [31:0] $end
$var wire 32 " result_x [31:0] $end
$var wire 1 # ready $end
$var wire 1 $ done $end
$var parameter 32 % CLK_PERIOD $end
$var reg 2 & base_sel [1:0] $end
$var reg 1 ' clk $end
$var reg 32 ( k_in [31:0] $end
$var reg 1 ) rst_n $end
$var reg 1 * start $end
$var integer 32 + error_count [31:0] $end
$var integer 32 , test_failed [31:0] $end
$var integer 32 - test_index [31:0] $end
$var integer 32 . test_passed [31:0] $end
$var integer 32 / total_tests [31:0] $end
$scope module dut $end
$var wire 2 0 base_sel [1:0] $end
$var wire 1 ' clk $end
$var wire 32 1 k_in [31:0] $end
$var wire 1 ) rst_n $end
$var wire 1 * start $end
$var wire 32 2 vdc_result [31:0] $end
$var wire 1 3 vdc_ready $end
$var wire 1 4 vdc_done $end
$var wire 32 5 cordic_sin [31:0] $end
$var wire 1 6 cordic_done $end
$var wire 32 7 cordic_cos [31:0] $end
$var parameter 3 8 FINISH $end
$var parameter 32 9 FP_ONE $end
$var parameter 32 : FP_TWO_PI $end
$var parameter 3 ; IDLE $end
$var parameter 3 < START_CORDIC $end
$var parameter 3 = START_VDC $end
$var parameter 3 > WAIT_CORDIC $end
$var parameter 3 ? WAIT_VDC $end
$var reg 32 @ angle_reg [31:0] $end
$var reg 16 A cordic_angle [15:0] $end
$var reg 1 B cordic_start $end
$var reg 3 C current_state [2:0] $end
$var reg 1 $ done $end
$var reg 32 D k_reg [31:0] $end
$var reg 3 E next_state [2:0] $end
$var reg 1 # ready $end
$var reg 32 F result_x [31:0] $end
$var reg 32 G result_y [31:0] $end
$var reg 1 H vdc_start $end
$scope module trig_inst $end
$var wire 16 I angle [15:0] $end
$var wire 1 ' clk $end
$var wire 1 ) rst_n $end
$var wire 1 B start $end
$var wire 8 J angle_index [7:0] $end
$var reg 32 K cosine [31:0] $end
$var reg 1 6 done $end
$var reg 1 L ready $end
$var reg 32 M sine [31:0] $end
$var real 1 N angle_rad $end
$var real 1 O cos_val $end
$var integer 32 P i [31:0] $end
$var real 1 Q sin_val $end
$upscope $end
$scope module vdc_inst $end
$var wire 2 R base_sel [1:0] $end
$var wire 1 ' clk $end
$var wire 32 S k_in [31:0] $end
$var wire 1 ) rst_n $end
$var wire 1 H start $end
$var wire 3 T div7_remainder [2:0] $end
$var wire 9 U div7_quotient [8:0] $end
$var wire 2 V div3_remainder [1:0] $end
$var wire 8 W div3_quotient [7:0] $end
$var parameter 3 X ACCUMULATE $end
$var parameter 3 Y CHECK $end
$var parameter 3 Z DIVIDE $end
$var parameter 3 [ FINISH $end
$var parameter 32 \ FP_HALF $end
$var parameter 32 ] FP_ONE $end
$var parameter 32 ^ FP_SEVENTH $end
$var parameter 32 _ FP_THIRD $end
$var parameter 3 ` IDLE $end
$var parameter 3 a INIT $end
$var parameter 3 b UPDATE $end
$var reg 32 c acc_reg [31:0] $end
$var reg 32 d base_reg [31:0] $end
$var reg 3 e current_state [2:0] $end
$var reg 1 4 done $end
$var reg 32 f k_reg [31:0] $end
$var reg 3 g next_state [2:0] $end
$var reg 32 h power_reg [31:0] $end
$var reg 32 i quotient_reg [31:0] $end
$var reg 1 3 ready $end
$var reg 32 j remainder_reg [31:0] $end
$var reg 32 k result [31:0] $end
$scope module div3_inst $end
$var wire 8 l n [7:0] $end
$var wire 2 m remainder [1:0] $end
$var wire 2 n rem4 [1:0] $end
$var wire 5 o rem3 [4:0] $end
$var wire 6 p rem2 [5:0] $end
$var wire 7 q rem1 [6:0] $end
$var wire 2 r r4 [1:0] $end
$var wire 2 s r3 [1:0] $end
$var wire 2 t r2 [1:0] $end
$var wire 2 u r1 [1:0] $end
$var wire 8 v quotient_sum [7:0] $end
$var wire 8 w quotient [7:0] $end
$var wire 2 x q4 [1:0] $end
$var wire 4 y q3 [3:0] $end
$var wire 5 z q2 [4:0] $end
$var wire 6 { q1 [5:0] $end
$upscope $end
$scope module div7_inst $end
$var wire 9 | n [8:0] $end
$var wire 3 } remainder [2:0] $end
$var wire 3 ~ rem3 [2:0] $end
$var wire 5 !" rem2 [4:0] $end
$var wire 7 "" rem1 [6:0] $end
$var wire 3 #" r3 [2:0] $end
$var wire 3 $" r2 [2:0] $end
$var wire 3 %" r1 [2:0] $end
$var wire 8 &" quotient_sum [7:0] $end
$var wire 9 '" quotient [8:0] $end
$var wire 2 (" q3 [1:0] $end
$var wire 4 )" q2 [3:0] $end
$var wire 6 *" q1 [5:0] $end
$upscope $end
$upscope $end
$upscope $end
$scope task run_test $end
$var reg 2 +" base_val [1:0] $end
$var reg 32 ," k_val [31:0] $end
$upscope $end
$upscope $end
$enddefinitions $end
$comment Show the parameter values. $end
$dumpall
b100 b
b1 a
b0 `
b101010101010101 _
b10010010010010 ^
b10000000000000000 ]
b1000000000000000 \
b110 [
b10 Z
b101 Y
b11 X
b10 ?
b100 >
b1 =
b11 <
b0 ;
b1100100100001111111 :
b10000000000000000 9
b101 8
b1010 %
$end
#0
$dumpvars
bx ,"
bx +"
b0 *"
b0 )"
b0 ("
b0 '"
b0 &"
b0 %"
b0 $"
b0 #"
b0 ""
b0 !"
b0 ~
b0 }
b0 |
b0 {
b0 z
b0 y
b0 x
b0 w
b0 v
b0 u
b0 t
b0 s
b0 r
b0 q
b0 p
b0 o
b0 n
b0 m
b0 l
b0 k
b0 j
b0 i
b10000000000000000 h
b0 g
b0 f
b0 e
b10 d
b0 c
b0 W
b0 V
b0 U
b0 T
b0 S
b0 R
r-0.02454122852291245 Q
b100000000 P
r0.9996988186962042 O
r6.258641614573416 N
b0 M
0L
b0 K
b0 J
b0 I
0H
b0 G
b0 F
b0 E
b0 D
b0 C
0B
b0 A
b0 @
b0 7
06
b0 5
04
13
b0 2
b0 1
b0 0
b0 /
b0 .
b0 -
b0 ,
b0 +
0*
0)
b0 (
0'
b0 &
0$
1#
b0 "
b0 !
$end
#5000
1'
#10000
0'
#15000
1'
#20000
1L
16
b10000000000000000 7
b10000000000000000 K
0'
1)
#25000
1'
#30000
0'
#35000
1'
#40000
0'
b0 +"
b1 ,"
#45000
b1 D
b1 S
0#
b1 E
1*
b1 (
b1 1
1'
#50000
0'
#55000
b1 C
1#
b10 E
0*
1'
#60000
0'
#65000
b1 g
1H
b10 C
1'
#70000
0'
#75000
b1 V
b1 m
b1 n
b1 r
b1 T
b1 }
b1 o
b1 s
b1 ~
b1 #"
b1 p
b1 t
b1 !"
b1 $"
b1 q
b1 u
b1 ""
b1 %"
b1 l
b1 |
b10 g
b1 e
b1 f
03
0H
1'
#80000
0'
#85000
b11 g
b1000000000000000 h
b10 e
1'
#90000
0'
#95000
b100 g
b11 e
b1 j
1'
#100000
0'
#105000
b101 g
b1000000000000000 c
b100 e
1'
#110000
0'
#115000
b0 V
b0 m
b0 n
b0 r
b0 T
b0 }
b0 o
b0 s
b0 ~
b0 #"
b0 p
b0 t
b0 !"
b0 $"
b0 q
b0 u
b0 ""
b0 %"
b110 g
b0 l
b0 |
b101 e
b100000000000000 h
b0 f
1'
#120000
0'
#125000
b0 g
b110 e
1'
#130000
0'
#135000
b11 E
b0 e
14
b1000000000000000 2
b1000000000000000 k
1'
#140000
0'
#145000
b101 E
b10010000111111 @
b11 C
04
13
1'
#150000
0'
#155000
b0 E
b101 C
1B
1'
#160000
0'
#165000
1$
b10000000000000000 "
b10000000000000000 F
b0 C
1'
#170000
0'
#175000
0B
0$
b10 ,"
b1 -
b1 /
b1 .
1'
#180000
0'
#185000
b10 D
b10 S
0#
b1 E
1*
b10 (
b10 1
1'
#190000
0'
#195000
b1 C
1#
b10 E
0*
1'
#200000
0'
#205000
b1 g
1H
b10 C
1'
#210000
0'
#215000
b10 V
b10 m
b10 n
b10 r
b10 T
b10 }
b10 o
b10 s
b10 ~
b10 #"
b10 p
b10 t
b10 !"
b10 $"
b10 q
b10 u
b10 ""
b10 %"
b10 l
b10 |
b10 g
b1 e
b10 f
03
0H
1'
#220000
0'
#225000
b11 g
b0 c
b1000000000000000 h
b10 e
1'
#230000
0'
#235000
b100 g
b11 e
b0 j
b1 i
1'
#240000
0'
#245000
b101 g
b100 e
1'
#250000
0'
#255000
b1 V
b1 m
b1 n
b1 r
b1 T
b1 }
b1 o
b1 s
b1 ~
b1 #"
b1 p
b1 t
b1 !"
b1 $"
b1 q
b1 u
b1 ""
b1 %"
b10 g
b1 l
b1 |
b101 e
b100000000000000 h
b1 f
1'
#260000
0'
#265000
b11 g
b10 e
1'
#270000
0'
#275000
b100 g
b11 e
b1 j
b0 i
1'
#280000
0'
#285000
b101 g
b100000000000000 c
b100 e
1'
#290000
0'
#295000
b0 V
b0 m
b0 n
b0 r
b0 T
b0 }
b0 o
b0 s
b0 ~
b0 #"
b0 p
b0 t
b0 !"
b0 $"
b0 q
b0 u
b0 ""
b0 %"
b110 g
b0 l
b0 |
b101 e
b10000000000000 h
b0 f
1'
#300000
0'
#305000
b0 g
b110 e
1'
#310000
0'
#315000
b11 E
b0 e
14
b100000000000000 2
b100000000000000 k
1'
#320000
0'
#325000
b101 E
b1001001000011111 @
b11 C
04
13
1'
#330000
0'
#335000
b0 E
b101 C
1B
1'
#340000
0'
#345000
1$
b0 C
1'
#350000
0'
#355000
0B
0$
b11 ,"
b10 -
b10 /
b10 .
1'
#360000
0'
#365000
b11 D
b11 S
0#
b1 E
1*
b11 (
b11 1
1'
#370000
0'
#375000
b1 C
1#
b10 E
0*
1'
#380000
0'
#385000
b1 g
1H
b10 C
1'
#390000
0'
#395000
b1 W
b1 w
b11 n
b11 r
b11 T
b11 }
b11 o
b11 s
b11 ~
b11 #"
b11 p
b11 t
b11 !"
b11 $"
b11 q
b11 u
b11 ""
b11 %"
b11 l
b11 |
b10 g
b1 e
b11 f
03
0H
1'
#400000
0'
#405000
b11 g
b0 c
b1000000000000000 h
b10 e
1'
#410000
0'
#415000
b100 g
b11 e
b1 i
1'
#420000
0'
#425000
b101 g
b1000000000000000 c
b100 e
1'
#430000
0'
#435000
b0 W
b0 w
b1 V
b1 m
b1 n
b1 r
b1 T
b1 }
b1 o
b1 s
b1 ~
b1 #"
b1 p
b1 t
b1 !"
b1 $"
b1 q
b1 u
b1 ""
b1 %"
b10 g
b1 l
b1 |
b101 e
b100000000000000 h
b1 f
1'
#440000
0'
#445000
b11 g
b10 e
1'
#450000
0'
#455000
b100 g
b11 e
b0 i
1'
#460000
0'
#465000
b101 g
b1100000000000000 c
b100 e
1'
#470000
0'
#475000
b0 V
b0 m
b0 n
b0 r
b0 T
b0 }
b0 o
b0 s
b0 ~
b0 #"
b0 p
b0 t
b0 !"
b0 $"
b0 q
b0 u
b0 ""
b0 %"
b110 g
b0 l
b0 |
b101 e
b10000000000000 h
b0 f
1'
#480000
0'
#485000
b0 g
b110 e
1'
#490000
0'
#495000
b11 E
b0 e
14
b1100000000000000 2
b1100000000000000 k
1'
#500000
0'
#505000
b101 E
b1011011001011111 @
b11 C
04
13
1'
#510000
0'
#515000
b0 E
b101 C
1B
1'
#520000
0'
#525000
1$
b0 C
1'
#530000
0'
#535000
0B
0$
b100 ,"
b11 -
b11 /
b11 .
1'
#540000
0'
#545000
b100 D
b100 S
0#
b1 E
1*
b100 (
b100 1
1'
#550000
0'
#555000
b1 C
1#
b10 E
0*
1'
#560000
0'
#565000
b1 g
1H
b10 C
1'
#570000
0'
#575000
b1 V
b1 m
b1 n
b1 r
b100 T
b100 }
b1 o
b1 s
b100 ~
b100 #"
b1 p
b1 t
b1 W
b1 w
b100 !"
b100 $"
b1 q
b1 v
b1 {
b100 ""
b100 %"
b100 l
b100 |
b10 g
b1 e
b100 f
03
0H
1'
#580000
0'
#585000
b11 g
b0 c
b1000000000000000 h
b10 e
1'
#590000
0'
#595000
b100 g
b11 e
b0 j
b10 i
1'
#600000
0'
#605000
b101 g
b100 e
1'
#610000
0'
#615000
b10 V
b10 m
b10 n
b10 r
b10 T
b10 }
b10 o
b10 s
b10 ~
b10 #"
b0 W
b0 w
b10 p
b10 t
b10 !"
b10 $"
b0 v
b0 {
b10 q
b10 u
b10 ""
b10 %"
b10 g
b10 l
b10 |
b101 e
b100000000000000 h
b10 f
1'
#620000
0'
#625000
b11 g
b10 e
1'
#630000
0'
#635000
b100 g
b11 e
b1 i
1'
#640000
0'
#645000
b101 g
b100 e
1'
#650000
0'
#655000
b1 V
b1 m
b1 n
b1 r
b1 T
b1 }
b1 o
b1 s
b1 ~
b1 #"
b1 p
b1 t
b1 !"
b1 $"
b1 q
b1 u
b1 ""
b1 %"
b10 g
b1 l
b1 |
b101 e
b10000000000000 h
b1 f
1'
#660000
0'
#665000
b11 g
b10 e
1'
#670000
0'
#675000
b100 g
b11 e
b1 j
b0 i
1'
#680000
0'
#685000
b101 g
b10000000000000 c
b100 e
1'
#690000
0'
#695000
b0 V
b0 m
b0 n
b0 r
b0 T
b0 }
b0 o
b0 s
b0 ~
b0 #"
b0 p
b0 t
b0 !"
b0 $"
b0 q
b0 u
b0 ""
b0 %"
b110 g
b0 l
b0 |
b101 e
b1000000000000 h
b0 f
1'
#700000
0'
#705000
b0 g
b110 e
1'
#710000
0'
#715000
b11 E
b0 e
14
b10000000000000 2
b10000000000000 k
1'
#720000
0'
#725000
b101 E
b1100100100001111 @
b11 C
04
13
1'
#730000
0'
#735000
b0 E
b101 C
1B
1'
#740000
0'
#745000
1$
b0 C
1'
#750000
0'
#755000
0B
0$
b101 ,"
b100 -
b100 /
b100 .
1'
#760000
0'
#765000
b101 D
b101 S
0#
b1 E
1*
b101 (
b101 1
1'
#770000
0'
#775000
b1 C
1#
b10 E
0*
1'
#780000
0'
#785000
b1 g
1H
b10 C
1'
#790000
0'
#795000
b10 V
b10 m
b10 n
b10 r
b101 T
b101 }
b10 o
b10 s
b101 ~
b101 #"
b1 W
b1 w
b10 p
b10 t
b101 !"
b101 $"
b1 v
b1 {
b10 q
b1 u
b101 ""
b101 %"
b101 l
b101 |
b10 g
b1 e
b101 f
03
0H
1'
#800000
0'
#805000
b11 g
b0 c
b1000000000000000 h
b10 e
1'
#810000
0'
#815000
b100 g
b11 e
b10 i
1'
#820000
0'
#825000
b101 g
b1000000000000000 c
b100 e
1'
#830000
0'
#835000
b10 T
b10 }
b10 ~
b10 #"
b0 W
b0 w
b10 !"
b10 $"
b0 v
b0 {
b10 q
b10 u
b10 ""
b10 %"
b10 g
b10 l
b10 |
b101 e
b100000000000000 h
b10 f
1'
#840000
0'
#845000
b11 g
b10 e
1'
#850000
0'
#855000
b100 g
b11 e
b0 j
b1 i
1'
#860000
0'
#865000
b101 g
b100 e
1'
#870000
0'
#875000
b1 V
b1 m
b1 n
b1 r
b1 T
b1 }
b1 o
b1 s
b1 ~
b1 #"
b1 p
b1 t
b1 !"
b1 $"
b1 q
b1 u
b1 ""
b1 %"
b10 g
b1 l
b1 |
b101 e
b10000000000000 h
b1 f
1'
#880000
0'
#885000
b11 g
b10 e
1'
#890000
0'
#895000
b100 g
b11 e
b1 j
b0 i
1'
#900000
0'
#905000
b101 g
b1010000000000000 c
b100 e
1'
#910000
0'
#915000
b0 V
b0 m
b0 n
b0 r
b0 T
b0 }
b0 o
b0 s
b0 ~
b0 #"
b0 p
b0 t
b0 !"
b0 $"
b0 q
b0 u
b0 ""
b0 %"
b110 g
b0 l
b0 |
b101 e
b1000000000000 h
b0 f
1'
#920000
0'
#925000
b0 g
b110 e
1'
#930000
0'
#935000
b11 E
b0 e
14
b1010000000000000 2
b1010000000000000 k
1'
#940000
0'
#945000
b101 E
b1110110101001111 @
b11 C
04
13
1'
#950000
0'
#955000
b0 E
b101 C
1B
1'
#960000
0'
#965000
1$
b0 C
1'
#970000
0'
#975000
0B
0$
b1 +"
b1 ,"
b0 -
b101 /
b101 .
1'
#980000
0'
#985000
b1 D
b1 S
0#
b1 E
1*
b1 &
b1 0
b1 R
b1 (
b1 1
1'
#990000
0'
#995000
b1 C
1#
b10 E
0*
1'
#1000000
0'
#1005000
b1 g
1H
b10 C
1'
#1010000
0'
#1015000
b1 V
b1 m
b1 n
b1 r
b1 T
b1 }
b1 o
b1 s
b1 ~
b1 #"
b1 p
b1 t
b1 !"
b1 $"
b1 q
b1 u
b1 ""
b1 %"
b1 l
b1 |
b10 g
b1 e
b1 f
03
0H
1'
#1020000
0'
#1025000
b11 g
b0 c
b101010101010101 h
b11 d
b10 e
1'
#1030000
0'
#1035000
b100 g
b11 e
1'
#1040000
0'
#1045000
b101 g
b101010101010101 c
b100 e
1'
#1050000
0'
#1055000
b0 V
b0 m
b0 n
b0 r
b0 T
b0 }
b0 o
b0 s
b0 ~
b0 #"
b0 p
b0 t
b0 !"
b0 $"
b0 q
b0 u
b0 ""
b0 %"
b110 g
b0 l
b0 |
b101 e
b1110001110001 h
b0 f
1'
#1060000
0'
#1065000
b0 g
b110 e
1'
#1070000
0'
#1075000
b11 E
b0 e
14
b101010101010101 2
b101010101010101 k
1'
#1080000
0'
#1085000
b101 E
b1100000101000 @
b11 C
04
13
1'
#1090000
0'
#1095000
b0 E
b101 C
1B
1'
#1100000
0'
#1105000
1$
b0 C
1'
#1110000
0'
#1115000
0B
0$
b10 ,"
b1 -
b110 /
b110 .
1'
#1120000
0'
#1125000
b10 D
b10 S
0#
b1 E
1*
b10 (
b10 1
1'
#1130000
0'
#1135000
b1 C
1#
b10 E
0*
1'
#1140000
0'
#1145000
b1 g
1H
b10 C
1'
#1150000
0'
#1155000
b10 V
b10 m
b10 n
b10 r
b10 T
b10 }
b10 o
b10 s
b10 ~
b10 #"
b10 p
b10 t
b10 !"
b10 $"
b10 q
b10 u
b10 ""
b10 %"
b10 l
b10 |
b10 g
b1 e
b10 f
03
0H
1'
#1160000
0'
#1165000
b11 g
b0 c
b101010101010101 h
b10 e
1'
#1170000
0'
#1175000
b100 g
b11 e
b10 j
1'
#1180000
0'
#1185000
b101 g
b1010101010101010 c
b100 e
1'
#1190000
0'
#1195000
b0 V
b0 m
b0 n
b0 r
b0 T
b0 }
b0 o
b0 s
b0 ~
b0 #"
b0 p
b0 t
b0 !"
b0 $"
b0 q
b0 u
b0 ""
b0 %"
b110 g
b0 l
b0 |
b101 e
b1110001110001 h
b0 f
1'
#1200000
0'
#1205000
b0 g
b110 e
1'
#1210000
0'
#1215000
b11 E
b0 e
14
b1010101010101010 2
b1010101010101010 k
1'
#1220000
0'
#1225000
b101 E
b11000001010000 @
b11 C
04
13
1'
#1230000
0'
#1235000
b0 E
b101 C
1B
1'
#1240000
0'
#1245000
1$
b0 C
1'
#1250000
0'
#1255000
0B
0$
b11 ,"
b10 -
b111 /
b111 .
1'
#1260000
0'
#1265000
b11 D
b11 S
0#
b1 E
1*
b11 (
b11 1
1'
#1270000
0'
#1275000
b1 C
1#
b10 E
0*
1'
#1280000
0'
#1285000
b1 g
1H
b10 C
1'
#1290000
0'
#1295000
b1 W
b1 w
b11 n
b11 r
b11 T
b11 }
b11 o
b11 s
b11 ~
b11 #"
b11 p
b11 t
b11 !"
b11 $"
b11 q
b11 u
b11 ""
b11 %"
b11 l
b11 |
b10 g
b1 e
b11 f
03
0H
1'
#1300000
0'
#1305000
b11 g
b0 c
b101010101010101 h
b10 e
1'
#1310000
0'
#1315000
b100 g
b11 e
b0 j
b1 i
1'
#1320000
0'
#1325000
b101 g
b100 e
1'
#1330000
0'
#1335000
b0 W
b0 w
b1 V
b1 m
b1 n
b1 r
b1 T
b1 }
b1 o
b1 s
b1 ~
b1 #"
b1 p
b1 t
b1 !"
b1 $"
b1 q
b1 u
b1 ""
b1 %"
b10 g
b1 l
b1 |
b101 e
b1110001110001 h
b1 f
1'
#1340000
0'
#1345000
b11 g
b10 e
1'
#1350000
0'
#1355000
b100 g
b11 e
b1 j
b0 i
1'
#1360000
0'
#1365000
b101 g
b1110001110001 c
b100 e
1'
#1370000
0'
#1375000
b0 V
b0 m
b0 n
b0 r
b0 T
b0 }
b0 o
b0 s
b0 ~
b0 #"
b0 p
b0 t
b0 !"
b0 $"
b0 q
b0 u
b0 ""
b0 %"
b110 g
b0 l
b0 |
b101 e
b100101111010 h
b0 f
1'
#1380000
0'
#1385000
b0 g
b110 e
1'
#1390000
0'
#1395000
b11 E
b0 e
14
b1110001110001 2
b1110001110001 k
1'
#1400000
0'
#1405000
b101 E
b1011001010110011 @
b11 C
04
13
1'
#1410000
0'
#1415000
b0 E
b101 C
1B
1'
#1420000
0'
#1425000
1$
b0 C
1'
#1430000
0'
#1435000
0B
0$
b100 ,"
b11 -
b1000 /
b1000 .
1'
#1440000
0'
#1445000
b100 D
b100 S
0#
b1 E
1*
b100 (
b100 1
1'
#1450000
0'
#1455000
b1 C
1#
b10 E
0*
1'
#1460000
0'
#1465000
b1 g
1H
b10 C
1'
#1470000
0'
#1475000
b1 V
b1 m
b1 n
b1 r
b100 T
b100 }
b1 o
b1 s
b100 ~
b100 #"
b1 p
b1 t
b1 W
b1 w
b100 !"
b100 $"
b1 q
b1 v
b1 {
b100 ""
b100 %"
b100 l
b100 |
b10 g
b1 e
b100 f
03
0H
1'
#1480000
0'
#1485000
b11 g
b0 c
b101010101010101 h
b10 e
1'
#1490000
0'
#1495000
b100 g
b11 e
b1 i
1'
#1500000
0'
#1505000
b101 g
b101010101010101 c
b100 e
1'
#1510000
0'
#1515000
b1 T
b1 }
b1 ~
b1 #"
b0 W
b0 w
b1 !"
b1 $"
b0 v
b0 {
b1 q
b1 u
b1 ""
b1 %"
b10 g
b1 l
b1 |
b101 e
b1110001110001 h
b1 f
1'
#1520000
0'
#1525000
b11 g
b10 e
1'
#1530000
0'
#1535000
b100 g
b11 e
b0 i
1'
#1540000
0'
#1545000
b101 g
b111000111000110 c
b100 e
1'
#1550000
0'
#1555000
b0 V
b0 m
b0 n
b0 r
b0 T
b0 }
b0 o
b0 s
b0 ~
b0 #"
b0 p
b0 t
b0 !"
b0 $"
b0 q
b0 u
b0 ""
b0 %"
b110 g
b0 l
b0 |
b101 e
b100101111010 h
b0 f
1'
#1560000
0'
#1565000
b0 g
b110 e
1'
#1570000
0'
#1575000
b11 E
b0 e
14
b111000111000110 2
b111000111000110 k
1'
#1580000
0'
#1585000
b101 E
b1100101011011100 @
b11 C
04
13
1'
#1590000
0'
#1595000
b0 E
b101 C
1B
1'
#1600000
0'
#1605000
1$
b0 C
1'
#1610000
0'
#1615000
0B
0$
b101 ,"
b100 -
b1001 /
b1001 .
1'
#1620000
0'
#1625000
b101 D
b101 S
0#
b1 E
1*
b101 (
b101 1
1'
#1630000
0'
#1635000
b1 C
1#
b10 E
0*
1'
#1640000
0'
#1645000
b1 g
1H
b10 C
1'
#1650000
0'
#1655000
b10 V
b10 m
b10 n
b10 r
b101 T
b101 }
b10 o
b10 s
b101 ~
b101 #"
b1 W
b1 w
b10 p
b10 t
b101 !"
b101 $"
b1 v
b1 {
b10 q
b1 u
b101 ""
b101 %"
b101 l
b101 |
b10 g
b1 e
b101 f
03
0H
1'
#1660000
0'
#1665000
b11 g
b0 c
b101010101010101 h
b10 e
1'
#1670000
0'
#1675000
b100 g
b11 e
b10 j
b1 i
1'
#1680000
0'
#1685000
b101 g
b1010101010101010 c
b100 e
1'
#1690000
0'
#1695000
b1 V
b1 m
b1 n
b1 r
b1 T
b1 }
b1 o
b1 s
b1 ~
b1 #"
b1 p
b1 t
b0 W
b0 w
b1 !"
b1 $"
b1 q
b0 v
b0 {
b1 ""
b1 %"
b10 g
b1 l
b1 |
b101 e
b1110001110001 h
b1 f
1'
#1700000
0'
#1705000
b11 g
b10 e
1'
#1710000
0'
#1715000
b100 g
b11 e
b1 j
b0 i
1'
#1720000
0'
#1725000
b101 g
b1100011100011011 c
b100 e
1'
#1730000
0'
#1735000
b0 V
b0 m
b0 n
b0 r
b0 T
b0 }
b0 o
b0 s
b0 ~
b0 #"
b0 p
b0 t
b0 !"
b0 $"
b0 q
b0 u
b0 ""
b0 %"
b110 g
b0 l
b0 |
b101 e
b100101111010 h
b0 f
1'
#1740000
0'
#1745000
b0 g
b110 e
1'
#1750000
0'
#1755000
b11 E
b0 e
14
b1100011100011011 2
b1100011100011011 k
1'
#1760000
0'
#1765000
b101 E
b1110001100000100 @
b11 C
04
13
1'
#1770000
0'
#1775000
b0 E
b101 C
1B
1'
#1780000
0'
#1785000
1$
b0 C
1'
#1790000
0'
#1795000
0B
0$
b10 +"
b1 ,"
b0 -
b1010 /
b1010 .
1'
#1800000
0'
#1805000
b1 D
b1 S
0#
b1 E
1*
b10 &
b10 0
b10 R
b1 (
b1 1
1'
#1810000
0'
#1815000
b1 C
1#
b10 E
0*
1'
#1820000
0'
#1825000
b1 g
1H
b10 C
1'
#1830000
0'
#1835000
b1 V
b1 m
b1 n
b1 r
b1 T
b1 }
b1 o
b1 s
b1 ~
b1 #"
b1 p
b1 t
b1 !"
b1 $"
b1 q
b1 u
b1 ""
b1 %"
b1 l
b1 |
b10 g
b1 e
b1 f
03
0H
1'
#1840000
0'
#1845000
b11 g
b0 c
b10010010010010 h
b111 d
b10 e
1'
#1850000
0'
#1855000
b100 g
b11 e
1'
#1860000
0'
#1865000
b101 g
b10010010010010 c
b100 e
1'
#1870000
0'
#1875000
b0 V
b0 m
b0 n
b0 r
b0 T
b0 }
b0 o
b0 s
b0 ~
b0 #"
b0 p
b0 t
b0 !"
b0 $"
b0 q
b0 u
b0 ""
b0 %"
b110 g
b0 l
b0 |
b101 e
b10100111001 h
b0 f
1'
#1880000
0'
#1885000
b0 g
b110 e
1'
#1890000
0'
#1895000
b11 E
b0 e
14
b10010010010010 2
b10010010010010 k
1'
#1900000
0'
#1905000
b101 E
b1110010111000111 @
b11 C
04
13
1'
#1910000
0'
#1915000
b0 E
b101 C
1B
1'
#1920000
0'
#1925000
1$
b0 C
1'
#1930000
0'
#1935000
0B
0$
b10 ,"
b1 -
b1011 /
b1011 .
1'
#1940000
0'
#1945000
b10 D
b10 S
0#
b1 E
1*
b10 (
b10 1
1'
#1950000
0'
#1955000
b1 C
1#
b10 E
0*
1'
#1960000
0'
#1965000
b1 g
1H
b10 C
1'
#1970000
0'
#1975000
b10 V
b10 m
b10 n
b10 r
b10 T
b10 }
b10 o
b10 s
b10 ~
b10 #"
b10 p
b10 t
b10 !"
b10 $"
b10 q
b10 u
b10 ""
b10 %"
b10 l
b10 |
b10 g
b1 e
b10 f
03
0H
1'
#1980000
0'
#1985000
b11 g
b0 c
b10010010010010 h
b10 e
1'
#1990000
0'
#1995000
b100 g
b11 e
b10 j
1'
#2000000
0'
#2005000
b101 g
b100100100100100 c
b100 e
1'
#2010000
0'
#2015000
b0 V
b0 m
b0 n
b0 r
b0 T
b0 }
b0 o
b0 s
b0 ~
b0 #"
b0 p
b0 t
b0 !"
b0 $"
b0 q
b0 u
b0 ""
b0 %"
b110 g
b0 l
b0 |
b101 e
b10100111001 h
b0 f
1'
#2020000
0'
#2025000
b0 g
b110 e
1'
#2030000
0'
#2035000
b11 E
b0 e
14
b100100100100100 2
b100100100100100 k
1'
#2040000
0'
#2045000
b101 E
b1100101110001110 @
b11 C
04
13
1'
#2050000
0'
#2055000
b0 E
b101 C
1B
1'
#2060000
0'
#2065000
1$
b0 C
1'
#2070000
0'
#2075000
0B
0$
b11 ,"
b10 -
b1100 /
b1100 .
1'
#2080000
0'
#2085000
b11 D
b11 S
0#
b1 E
1*
b11 (
b11 1
1'
#2090000
0'
#2095000
b1 C
1#
b10 E
0*
1'
#2100000
0'
#2105000
b1 g
1H
b10 C
1'
#2110000
0'
#2115000
b1 W
b1 w
b11 n
b11 r
b11 T
b11 }
b11 o
b11 s
b11 ~
b11 #"
b11 p
b11 t
b11 !"
b11 $"
b11 q
b11 u
b11 ""
b11 %"
b11 l
b11 |
b10 g
b1 e
b11 f
03
0H
1'
#2120000
0'
#2125000
b11 g
b0 c
b10010010010010 h
b10 e
1'
#2130000
0'
#2135000
b100 g
b11 e
b11 j
1'
#2140000
0'
#2145000
b101 g
b110110110110110 c
b100 e
1'
#2150000
0'
#2155000
b0 W
b0 w
b0 n
b0 r
b0 T
b0 }
b0 o
b0 s
b0 ~
b0 #"
b0 p
b0 t
b0 !"
b0 $"
b0 q
b0 u
b0 ""
b0 %"
b110 g
b0 l
b0 |
b101 e
b10100111001 h
b0 f
1'
#2160000
0'
#2165000
b0 g
b110 e
1'
#2170000
0'
#2175000
b11 E
b0 e
14
b110110110110110 2
b110110110110110 k
1'
#2180000
0'
#2185000
b101 E
b1011000101010101 @
b11 C
04
13
1'
#2190000
0'
#2195000
b0 E
b101 C
1B
1'
#2200000
0'
#2205000
1$
b0 C
1'
#2210000
0'
#2215000
0B
0$
b100 ,"
b11 -
b1101 /
b1101 .
1'
#2220000
0'
#2225000
b100 D
b100 S
0#
b1 E
1*
b100 (
b100 1
1'
#2230000
0'
#2235000
b1 C
1#
b10 E
0*
1'
#2240000
0'
#2245000
b1 g
1H
b10 C
1'
#2250000
0'
#2255000
b1 V
b1 m
b1 n
b1 r
b100 T
b100 }
b1 o
b1 s
b100 ~
b100 #"
b1 p
b1 t
b1 W
b1 w
b100 !"
b100 $"
b1 q
b1 v
b1 {
b100 ""
b100 %"
b100 l
b100 |
b10 g
b1 e
b100 f
03
0H
1'
#2260000
0'
#2265000
b11 g
b0 c
b10010010010010 h
b10 e
1'
#2270000
0'
#2275000
b100 g
b11 e
b100 j
1'
#2280000
0'
#2285000
b101 g
b1001001001001000 c
b100 e
1'
#2290000
0'
