hwdesign/halton_fsm_32bit_simple_tb.vcd
$date
	Mon Dec 08 14:55:21 2025
$end
$version
	Icarus Verilog
$end
$timescale
	1ps
$end
$scope module halton_fsm_32bit_simple_tb $end
$var wire 32 ! result_y [31:0] $end
$var wire 32 " result_x [31:0] $end
$var wire 1 # ready $end
$var wire 1 $ done $end
$var parameter 32 % CLK_PERIOD $end
$var reg 2 & base0_sel [1:0] $end
$var reg 2 ' base1_sel [1:0] $end
$var reg 1 ( clk $end
$var reg 32 ) k_in [31:0] $end
$var reg 1 * rst_n $end
$var reg 1 + start $end
$var integer 32 , error_count [31:0] $end
$var integer 32 - test_failed [31:0] $end
$var integer 32 . test_index [31:0] $end
$var integer 32 / test_passed [31:0] $end
$var integer 32 0 total_tests [31:0] $end
$scope module dut $end
$var wire 2 1 base0_sel [1:0] $end
$var wire 2 2 base1_sel [1:0] $end
$var wire 1 ( clk $end
$var wire 32 3 k_in [31:0] $end
$var wire 1 * rst_n $end
$var wire 1 + start $end
$var wire 32 4 vdc1_result [31:0] $end
$var wire 1 5 vdc1_ready $end
$var wire 1 6 vdc1_done $end
$var wire 32 7 vdc0_result [31:0] $end
$var wire 1 8 vdc0_ready $end
$var wire 1 9 vdc0_done $end
$var parameter 3 : FINISH $end
$var parameter 3 ; IDLE $end
$var parameter 3 < START_VDC0 $end
$var parameter 3 = START_VDC1 $end
$var parameter 3 > WAIT_VDC0 $end
$var parameter 3 ? WAIT_VDC1 $end
$var reg 3 @ current_state [2:0] $end
$var reg 1 $ done $end
$var reg 32 A k_reg [31:0] $end
$var reg 3 B next_state [2:0] $end
$var reg 1 # ready $end
$var reg 32 C result_x [31:0] $end
$var reg 32 D result_y [31:0] $end
$var reg 1 E vdc0_start $end
$var reg 1 F vdc1_start $end
$scope module vdc0_inst $end
$var wire 2 G base_sel [1:0] $end
$var wire 1 ( clk $end
$var wire 32 H k_in [31:0] $end
$var wire 1 * rst_n $end
$var wire 1 E start $end
$var wire 3 I div7_remainder [2:0] $end
$var wire 9 J div7_quotient [8:0] $end
$var wire 2 K div3_remainder [1:0] $end
$var wire 8 L div3_quotient [7:0] $end
$var parameter 3 M ACCUMULATE $end
$var parameter 3 N CHECK $end
$var parameter 3 O DIVIDE $end
$var parameter 3 P FINISH $end
$var parameter 32 Q FP_HALF $end
$var parameter 32 R FP_ONE $end
$var parameter 32 S FP_SEVENTH $end
$var parameter 32 T FP_THIRD $end
$var parameter 3 U IDLE $end
$var parameter 3 V INIT $end
$var parameter 3 W UPDATE $end
$var reg 32 X acc_reg [31:0] $end
$var reg 32 Y base_reg [31:0] $end
$var reg 3 Z current_state [2:0] $end
$var reg 1 9 done $end
$var reg 32 [ k_reg [31:0] $end
$var reg 3 \ next_state [2:0] $end
$var reg 32 ] power_reg [31:0] $end
$var reg 32 ^ quotient_reg [31:0] $end
$var reg 1 8 ready $end
$var reg 32 _ remainder_reg [31:0] $end
$var reg 32 ` result [31:0] $end
$scope module div3_inst $end
$var wire 8 a n [7:0] $end
$var wire 2 b remainder [1:0] $end
$var wire 2 c rem4 [1:0] $end
$var wire 5 d rem3 [4:0] $end
$var wire 6 e rem2 [5:0] $end
$var wire 7 f rem1 [6:0] $end
$var wire 2 g r4 [1:0] $end
$var wire 2 h r3 [1:0] $end
$var wire 2 i r2 [1:0] $end
$var wire 2 j r1 [1:0] $end
$var wire 8 k quotient_sum [7:0] $end
$var wire 8 l quotient [7:0] $end
$var wire 2 m q4 [1:0] $end
$var wire 4 n q3 [3:0] $end
$var wire 5 o q2 [4:0] $end
$var wire 6 p q1 [5:0] $end
$upscope $end
$scope module div7_inst $end
$var wire 9 q n [8:0] $end
$var wire 3 r remainder [2:0] $end
$var wire 3 s rem3 [2:0] $end
$var wire 5 t rem2 [4:0] $end
$var wire 7 u rem1 [6:0] $end
$var wire 3 v r3 [2:0] $end
$var wire 3 w r2 [2:0] $end
$var wire 3 x r1 [2:0] $end
$var wire 8 y quotient_sum [7:0] $end
$var wire 9 z quotient [8:0] $end
$var wire 2 { q3 [1:0] $end
$var wire 4 | q2 [3:0] $end
$var wire 6 } q1 [5:0] $end
$upscope $end
$upscope $end
$scope module vdc1_inst $end
$var wire 2 ~ base_sel [1:0] $end
$var wire 1 ( clk $end
$var wire 32 !" k_in [31:0] $end
$var wire 1 * rst_n $end
$var wire 1 F start $end
$var wire 3 "" div7_remainder [2:0] $end
$var wire 9 #" div7_quotient [8:0] $end
$var wire 2 $" div3_remainder [1:0] $end
$var wire 8 %" div3_quotient [7:0] $end
$var parameter 3 &" ACCUMULATE $end
$var parameter 3 '" CHECK $end
$var parameter 3 (" DIVIDE $end
$var parameter 3 )" FINISH $end
$var parameter 32 *" FP_HALF $end
$var parameter 32 +" FP_ONE $end
$var parameter 32 ," FP_SEVENTH $end
$var parameter 32 -" FP_THIRD $end
$var parameter 3 ." IDLE $end
$var parameter 3 /" INIT $end
$var parameter 3 0" UPDATE $end
$var reg 32 1" acc_reg [31:0] $end
$var reg 32 2" base_reg [31:0] $end
$var reg 3 3" current_state [2:0] $end
$var reg 1 6 done $end
$var reg 32 4" k_reg [31:0] $end
$var reg 3 5" next_state [2:0] $end
$var reg 32 6" power_reg [31:0] $end
$var reg 32 7" quotient_reg [31:0] $end
$var reg 1 5 ready $end
$var reg 32 8" remainder_reg [31:0] $end
$var reg 32 9" result [31:0] $end
$scope module div3_inst $end
$var wire 8 :" n [7:0] $end
$var wire 2 ;" remainder [1:0] $end
$var wire 2 <" rem4 [1:0] $end
$var wire 5 =" rem3 [4:0] $end
$var wire 6 >" rem2 [5:0] $end
$var wire 7 ?" rem1 [6:0] $end
$var wire 2 @" r4 [1:0] $end
$var wire 2 A" r3 [1:0] $end
$var wire 2 B" r2 [1:0] $end
$var wire 2 C" r1 [1:0] $end
$var wire 8 D" quotient_sum [7:0] $end
$var wire 8 E" quotient [7:0] $end
$var wire 2 F" q4 [1:0] $end
$var wire 4 G" q3 [3:0] $end
$var wire 5 H" q2 [4:0] $end
$var wire 6 I" q1 [5:0] $end
$upscope $end
$scope module div7_inst $end
$var wire 9 J" n [8:0] $end
$var wire 3 K" remainder [2:0] $end
$var wire 3 L" rem3 [2:0] $end
$var wire 5 M" rem2 [4:0] $end
$var wire 7 N" rem1 [6:0] $end
$var wire 3 O" r3 [2:0] $end
$var wire 3 P" r2 [2:0] $end
$var wire 3 Q" r1 [2:0] $end
$var wire 8 R" quotient_sum [7:0] $end
$var wire 9 S" quotient [8:0] $end
$var wire 2 T" q3 [1:0] $end
$var wire 4 U" q2 [3:0] $end
$var wire 6 V" q1 [5:0] $end
$upscope $end
$upscope $end
$upscope $end
$scope task run_test $end
$var reg 2 W" base0_val [1:0] $end
$var reg 2 X" base1_val [1:0] $end
$var reg 32 Y" expected_x [31:0] $end
$var reg 32 Z" expected_y [31:0] $end
$var reg 32 [" k_val [31:0] $end
$upscope $end
$upscope $end
$enddefinitions $end
$comment Show the parameter values. $end
$dumpall
b100 0"
b1 /"
b0 ."
b101010101010101 -"
b10010010010010 ,"
b10000000000000000 +"
b1000000000000000 *"
b110 )"
b10 ("
b101 '"
b11 &"
b100 W
b1 V
b0 U
b101010101010101 T
b10010010010010 S
b10000000000000000 R
b1000000000000000 Q
b110 P
b10 O
b101 N
b11 M
b100 ?
b10 >
b11 =
b1 <
b0 ;
b101 :
b1010 %
$end
#0
$dumpvars
bx ["
bx Z"
bx Y"
bx X"
bx W"
b0 V"
b0 U"
b0 T"
b0 S"
b0 R"
b0 Q"
b0 P"
b0 O"
b0 N"
b0 M"
b0 L"
b0 K"
b0 J"
b0 I"
b0 H"
b0 G"
b0 F"
b0 E"
b0 D"
b0 C"
b0 B"
b0 A"
b0 @"
b0 ?"
b0 >"
b0 ="
b0 <"
b0 ;"
b0 :"
b0 9"
b0 8"
b0 7"
b10000000000000000 6"
b0 5"
b0 4"
b0 3"
b10 2"
b0 1"
b0 %"
b0 $"
b0 #"
b0 ""
b0 !"
b0 ~
b0 }
b0 |
b0 {
b0 z
b0 y
b0 x
b0 w
b0 v
b0 u
b0 t
b0 s
b0 r
b0 q
b0 p
b0 o
b0 n
b0 m
b0 l
b0 k
b0 j
b0 i
b0 h
b0 g
b0 f
b0 e
b0 d
b0 c
b0 b
b0 a
b0 `
b0 _
b0 ^
b10000000000000000 ]
b0 \
b0 [
b0 Z
b10 Y
b0 X
b0 L
b0 K
b0 J
b0 I
b0 H
b0 G
0F
0E
b0 D
b0 C
b0 B
b0 A
b0 @
09
18
b0 7
06
15
b0 4
b0 3
b0 2
b0 1
b0 0
b0 /
b0 .
b0 -
b0 ,
0+
0*
b0 )
0(
b0 '
b0 &
0$
1#
b0 "
b0 !
$end
#5000
1(
#10000
0(
#15000
1(
#20000
0(
1*
#25000
1(
#30000
0(
#35000
1(
#40000
0(
b101010101010101 Z"
b1000000000000000 Y"
b1 X"
b0 W"
b1 ["
#45000
b1 A
b1 H
b1 !"
0#
b1 B
1+
b1 '
b1 2
b1 ~
b1 )
b1 3
1(
#50000
0(
#55000
b1 @
1#
b10 B
0+
1(
#60000
0(
#65000
b1 \
1E
b10 @
1(
#70000
0(
#75000
b1 K
b1 b
b1 c
b1 g
b1 I
b1 r
b1 d
b1 h
b1 s
b1 v
b1 e
b1 i
b1 t
b1 w
b1 f
b1 j
b1 u
b1 x
b1 a
b1 q
b10 \
b1 Z
b1 [
08
0E
1(
#80000
0(
#85000
b11 \
b1000000000000000 ]
b10 Z
1(
#90000
0(
#95000
b100 \
b11 Z
b1 _
1(
#100000
0(
#105000
b101 \
b1000000000000000 X
b100 Z
1(
#110000
0(
#115000
b0 K
b0 b
b0 c
b0 g
b0 I
b0 r
b0 d
b0 h
b0 s
b0 v
b0 e
b0 i
b0 t
b0 w
b0 f
b0 j
b0 u
b0 x
b110 \
b0 a
b0 q
b101 Z
b100000000000000 ]
b0 [
1(
#120000
0(
#125000
b0 \
b110 Z
1(
#130000
0(
#135000
b11 B
b0 Z
19
b1000000000000000 7
b1000000000000000 `
1(
#140000
0(
#145000
b100 B
b11 @
09
18
1(
#150000
0(
#155000
b1 5"
b100 @
1F
1(
#160000
0(
#165000
b1 $"
b1 ;"
b1 <"
b1 @"
b1 ""
b1 K"
b1 ="
b1 A"
b1 L"
b1 O"
b1 >"
b1 B"
b1 M"
b1 P"
b1 ?"
b1 C"
b1 N"
b1 Q"
b1 :"
b1 J"
b10 5"
0F
b1 4"
05
b1 3"
1(
#170000
0(
#175000
b11 5"
b10 3"
b101010101010101 6"
b11 2"
1(
#180000
0(
#185000
b100 5"
b1 8"
b11 3"
1(
#190000
0(
#195000
b101 5"
b100 3"
b101010101010101 1"
1(
#200000
0(
#205000
b0 $"
b0 ;"
b0 <"
b0 @"
b0 ""
b0 K"
b0 ="
b0 A"
b0 L"
b0 O"
b0 >"
b0 B"
b0 M"
b0 P"
b0 ?"
b0 C"
b0 N"
b0 Q"
b0 :"
b0 J"
b110 5"
b1110001110001 6"
b0 4"
b101 3"
1(
#210000
0(
#215000
b0 5"
b110 3"
1(
#220000
0(
#225000
b101 B
16
b101010101010101 4
b101010101010101 9"
b0 3"
1(
#230000
0(
#235000
b0 B
06
15
b101 @
1(
#240000
0(
#245000
1$
b101010101010101 !
b101010101010101 D
b1000000000000000 "
b1000000000000000 C
b0 @
1(
#250000
0(
#255000
0$
b1010101010101010 Z"
b100000000000000 Y"
b10 ["
b1 .
b1 0
b1 /
1(
#260000
0(
#265000
b10 A
b10 H
b10 !"
0#
b1 B
1+
b10 )
b10 3
1(
#270000
0(
#275000
b1 @
1#
b10 B
0+
1(
#280000
0(
#285000
b1 \
1E
b10 @
1(
#290000
0(
#295000
b10 K
b10 b
b10 c
b10 g
b10 I
b10 r
b10 d
b10 h
b10 s
b10 v
b10 e
b10 i
b10 t
b10 w
b10 f
b10 j
b10 u
b10 x
b10 a
b10 q
b10 \
b1 Z
b10 [
08
0E
1(
#300000
0(
#305000
b11 \
b0 X
b1000000000000000 ]
b10 Z
1(
#310000
0(
#315000
b100 \
b11 Z
b0 _
b1 ^
1(
#320000
0(
#325000
b101 \
b100 Z
1(
#330000
0(
#335000
b1 K
b1 b
b1 c
b1 g
b1 I
b1 r
b1 d
b1 h
b1 s
b1 v
b1 e
b1 i
b1 t
b1 w
b1 f
b1 j
b1 u
b1 x
b10 \
b1 a
b1 q
b101 Z
b100000000000000 ]
b1 [
1(
#340000
0(
#345000
b11 \
b10 Z
1(
#350000
0(
#355000
b100 \
b11 Z
b1 _
b0 ^
1(
#360000
0(
#365000
b101 \
b100000000000000 X
b100 Z
1(
#370000
0(
#375000
b0 K
b0 b
b0 c
b0 g
b0 I
b0 r
b0 d
b0 h
b0 s
b0 v
b0 e
b0 i
b0 t
b0 w
b0 f
b0 j
b0 u
b0 x
b110 \
b0 a
b0 q
b101 Z
b10000000000000 ]
b0 [
1(
#380000
0(
#385000
b0 \
b110 Z
1(
#390000
0(
#395000
b11 B
b0 Z
19
b100000000000000 7
b100000000000000 `
1(
#400000
0(
#405000
b100 B
b11 @
09
18
1(
#410000
0(
#415000
b1 5"
b100 @
1F
1(
#420000
0(
#425000
b10 $"
b10 ;"
b10 <"
b10 @"
b10 ""
b10 K"
b10 ="
b10 A"
b10 L"
b10 O"
b10 >"
b10 B"
b10 M"
b10 P"
b10 ?"
b10 C"
b10 N"
b10 Q"
b10 :"
b10 J"
b10 5"
0F
b10 4"
05
b1 3"
1(
#430000
0(
#435000
b11 5"
b10 3"
b0 1"
b101010101010101 6"
1(
#440000
0(
#445000
b100 5"
b10 8"
b11 3"
1(
#450000
0(
#455000
b101 5"
b100 3"
b1010101010101010 1"
1(
#460000
0(
#465000
b0 $"
b0 ;"
b0 <"
b0 @"
b0 ""
b0 K"
b0 ="
b0 A"
b0 L"
b0 O"
b0 >"
b0 B"
b0 M"
b0 P"
b0 ?"
b0 C"
b0 N"
b0 Q"
b0 :"
b0 J"
b110 5"
b1110001110001 6"
b0 4"
b101 3"
1(
#470000
0(
#475000
b0 5"
b110 3"
1(
#480000
0(
#485000
b101 B
16
b1010101010101010 4
b1010101010101010 9"
b0 3"
1(
#490000
0(
#495000
b0 B
06
15
b101 @
1(
#500000
0(
#505000
1$
b1010101010101010 !
b1010101010101010 D
b100000000000000 "
b100000000000000 C
b0 @
1(
#510000
0(
#515000
0$
b1110001110001 Z"
b1100000000000000 Y"
b11 ["
b10 .
b10 0
b10 /
1(
#520000
0(
#525000
b11 A
b11 H
b11 !"
0#
b1 B
1+
b11 )
b11 3
1(
#530000
0(
#535000
b1 @
1#
b10 B
0+
1(
#540000
0(
#545000
b1 \
1E
b10 @
1(
#550000
0(
#555000
b1 L
b1 l
b11 c
b11 g
b11 I
b11 r
b11 d
b11 h
b11 s
b11 v
b11 e
b11 i
b11 t
b11 w
b11 f
b11 j
b11 u
b11 x
b11 a
b11 q
b10 \
b1 Z
b11 [
08
0E
1(
#560000
0(
#565000
b11 \
b0 X
b1000000000000000 ]
b10 Z
1(
#570000
0(
#575000
b100 \
b11 Z
b1 ^
1(
#580000
0(
#585000
b101 \
b1000000000000000 X
b100 Z
1(
#590000
0(
#595000
b0 L
b0 l
b1 K
b1 b
b1 c
b1 g
b1 I
b1 r
b1 d
b1 h
b1 s
b1 v
b1 e
b1 i
b1 t
b1 w
b1 f
b1 j
b1 u
b1 x
b10 \
b1 a
b1 q
b101 Z
b100000000000000 ]
b1 [
1(
#600000
0(
#605000
b11 \
b10 Z
1(
#610000
0(
#615000
b100 \
b11 Z
b0 ^
1(
#620000
0(
#625000
b101 \
b1100000000000000 X
b100 Z
1(
#630000
0(
#635000
b0 K
b0 b
b0 c
b0 g
b0 I
b0 r
b0 d
b0 h
b0 s
b0 v
b0 e
b0 i
b0 t
b0 w
b0 f
b0 j
b0 u
b0 x
b110 \
b0 a
b0 q
b101 Z
b10000000000000 ]
b0 [
1(
#640000
0(
#645000
b0 \
b110 Z
1(
#650000
0(
#655000
b11 B
b0 Z
19
b1100000000000000 7
b1100000000000000 `
1(
#660000
0(
#665000
b100 B
b11 @
09
18
1(
#670000
0(
#675000
b1 5"
b100 @
1F
1(
#680000
0(
#685000
b1 %"
b1 E"
b11 <"
b11 @"
b11 ""
b11 K"
b11 ="
b11 A"
b11 L"
b11 O"
b11 >"
b11 B"
b11 M"
b11 P"
b11 ?"
b11 C"
b11 N"
b11 Q"
b11 :"
b11 J"
b10 5"
0F
b11 4"
05
b1 3"
1(
#690000
0(
#695000
b11 5"
b10 3"
b0 1"
b101010101010101 6"
1(
#700000
0(
#705000
b100 5"
b0 8"
b1 7"
b11 3"
1(
#710000
0(
#715000
b101 5"
b100 3"
1(
#720000
0(
#725000
b0 %"
b0 E"
b1 $"
b1 ;"
b1 <"
b1 @"
b1 ""
b1 K"
b1 ="
b1 A"
b1 L"
b1 O"
b1 >"
b1 B"
b1 M"
b1 P"
b1 ?"
b1 C"
b1 N"
b1 Q"
b1 :"
b1 J"
b10 5"
b1110001110001 6"
b1 4"
b101 3"
1(
#730000
0(
#735000
b11 5"
b10 3"
1(
#740000
0(
#745000
b100 5"
b1 8"
b0 7"
b11 3"
1(
#750000
0(
#755000
b101 5"
b100 3"
b1110001110001 1"
1(
#760000
0(
#765000
b0 $"
b0 ;"
b0 <"
b0 @"
b0 ""
b0 K"
b0 ="
b0 A"
b0 L"
b0 O"
b0 >"
b0 B"
b0 M"
b0 P"
b0 ?"
b0 C"
b0 N"
b0 Q"
b0 :"
b0 J"
b110 5"
b100101111010 6"
b0 4"
b101 3"
1(
#770000
0(
#775000
b0 5"
b110 3"
1(
#780000
0(
#785000
b101 B
16
b1110001110001 4
b1110001110001 9"
b0 3"
1(
#790000
0(
#795000
b0 B
06
15
b101 @
1(
#800000
0(
#805000
1$
b1110001110001 !
b1110001110001 D
b1100000000000000 "
b1100000000000000 C
b0 @
1(
#810000
0(
#815000
0$
b111000111000111 Z"
b10000000000000 Y"
b100 ["
b11 .
b11 0
b11 /
1(
#820000
0(
#825000
b100 A
b100 H
b100 !"
0#
b1 B
1+
b100 )
b100 3
1(
#830000
0(
#835000
b1 @
1#
b10 B
0+
1(
#840000
0(
#845000
b1 \
1E
b10 @
1(
#850000
0(
#855000
b1 K
b1 b
b1 c
b1 g
b100 I
b100 r
b1 d
b1 h
b100 s
b100 v
b1 e
b1 i
b1 L
b1 l
b100 t
b100 w
b1 f
b1 k
b1 p
b100 u
b100 x
b100 a
b100 q
b10 \
b1 Z
b100 [
08
0E
1(
#860000
0(
#865000
b11 \
b0 X
b1000000000000000 ]
b10 Z
1(
#870000
0(
#875000
b100 \
b11 Z
b0 _
b10 ^
1(
#880000
0(
#885000
b101 \
b100 Z
1(
#890000
0(
#895000
b10 K
b10 b
b10 c
b10 g
b10 I
b10 r
b10 d
b10 h
b10 s
b10 v
b0 L
b0 l
b10 e
b10 i
b10 t
b10 w
b0 k
b0 p
b10 f
b10 j
b10 u
b10 x
b10 \
b10 a
b10 q
b101 Z
b100000000000000 ]
b10 [
1(
#900000
0(
#905000
b11 \
b10 Z
1(
#910000
0(
#915000
b100 \
b11 Z
b1 ^
1(
#920000
0(
#925000
b101 \
b100 Z
1(
#930000
0(
#935000
b1 K
b1 b
b1 c
b1 g
b1 I
b1 r
b1 d
b1 h
b1 s
b1 v
b1 e
b1 i
b1 t
b1 w
b1 f
b1 j
b1 u
b1 x
b10 \
b1 a
b1 q
b101 Z
b10000000000000 ]
b1 [
1(
#940000
0(
#945000
b11 \
b10 Z
1(
#950000
0(
#955000
b100 \
b11 Z
b1 _
b0 ^
1(
#960000
0(
#965000
b101 \
b10000000000000 X
b100 Z
1(
#970000
0(
#975000
b0 K
b0 b
b0 c
b0 g
b0 I
b0 r
b0 d
b0 h
b0 s
b0 v
b0 e
b0 i
b0 t
b0 w
b0 f
b0 j
b0 u
b0 x
b110 \
b0 a
b0 q
b101 Z
b1000000000000 ]
b0 [
1(
#980000
0(
#985000
b0 \
b110 Z
1(
#990000
0(
#995000
b11 B
b0 Z
19
b10000000000000 7
b10000000000000 `
1(
#1000000
0(
#1005000
b100 B
b11 @
09
18
1(
#1010000
0(
#1015000
b1 5"
b100 @
1F
1(
#1020000
0(
#1025000
b1 $"
b1 ;"
b1 <"
b1 @"
b100 ""
b100 K"
b1 ="
b1 A"
b100 L"
b100 O"
b1 >"
b1 B"
b1 %"
b1 E"
b100 M"
b100 P"
b1 ?"
b1 D"
b1 I"
b100 N"
b100 Q"
b100 :"
b100 J"
b10 5"
0F
b100 4"
05
b1 3"
1(
#1030000
0(
#1035000
b11 5"
b10 3"
b0 1"
b101010101010101 6"
1(
#1040000
0(
#1045000
b100 5"
b1 7"
b11 3"
1(
#1050000
0(
#1055000
b101 5"
b100 3"
b101010101010101 1"
1(
#1060000
0(
#1065000
b1 ""
b1 K"
b1 L"
b1 O"
b0 %"
b0 E"
b1 M"
b1 P"
b0 D"
b0 I"
b1 ?"
b1 C"
b1 N"
b1 Q"
b1 :"
b1 J"
b10 5"
b1110001110001 6"
b1 4"
b101 3"
1(
#1070000
0(
#1075000
b11 5"
b10 3"
1(
#1080000
0(
#1085000
b100 5"
b0 7"
b11 3"
1(
#1090000
0(
#1095000
b101 5"
b100 3"
b111000111000110 1"
1(
#1100000
0(
#1105000
b0 $"
b0 ;"
b0 <"
b0 @"
b0 ""
b0 K"
b0 ="
b0 A"
b0 L"
b0 O"
b0 >"
b0 B"
b0 M"
b0 P"
b0 ?"
b0 C"
b0 N"
b0 Q"
b0 :"
b0 J"
b110 5"
b100101111010 6"
b0 4"
b101 3"
1(
#1110000
0(
#1115000
b0 5"
b110 3"
1(
#1120000
0(
#1125000
b101 B
16
b111000111000110 4
b111000111000110 9"
b0 3"
1(
#1130000
0(
#1135000
b0 B
06
15
b101 @
1(
#1140000
0(
#1145000
1$
b111000111000110 !
b111000111000110 D
b10000000000000 "
b10000000000000 C
b0 @
1(
#1150000
0(
#1155000
0$
b1100011100011100 Z"
b1010000000000000 Y"
b101 ["
b100 .
b100 0
b100 /
1(
#1160000
0(
#1165000
b101 A
b101 H
b101 !"
0#
b1 B
1+
b101 )
b101 3
1(
#1170000
0(
#1175000
b1 @
1#
b10 B
0+
1(
#1180000
0(
#1185000
b1 \
1E
b10 @
1(
#1190000
0(
#1195000
b10 K
b10 b
b10 c
b10 g
b101 I
b101 r
b10 d
b10 h
b101 s
b101 v
b1 L
b1 l
b10 e
b10 i
b101 t
b101 w
b1 k
b1 p
b10 f
b1 j
b101 u
b101 x
b101 a
b101 q
b10 \
b1 Z
b101 [
08
0E
1(
#1200000
0(
#1205000
b11 \
b0 X
b1000000000000000 ]
b10 Z
1(
#1210000
0(
#1215000
b100 \
b11 Z
b10 ^
1(
#1220000
0(
#1225000
b101 \
b1000000000000000 X
b100 Z
1(
#1230000
0(
#1235000
b10 I
b10 r
b10 s
b10 v
b0 L
b0 l
b10 t
b10 w
b0 k
b0 p
b10 f
b10 j
b10 u
b10 x
b10 \
b10 a
b10 q
b101 Z
b100000000000000 ]
b10 [
1(
#1240000
0(
#1245000
b11 \
b10 Z
1(
#1250000
0(
#1255000
b100 \
b11 Z
b0 _
b1 ^
1(
#1260000
0(
#1265000
b101 \
b100 Z
1(
#1270000
0(
#1275000
b1 K
b1 b
b1 c
b1 g
b1 I
b1 r
b1 d
b1 h
b1 s
b1 v
b1 e
b1 i
b1 t
b1 w
b1 f
b1 j
b1 u
b1 x
b10 \
b1 a
b1 q
b101 Z
b10000000000000 ]
b1 [
1(
#1280000
0(
#1285000
b11 \
b10 Z
1(
#1290000
0(
#1295000
b100 \
b11 Z
b1 _
b0 ^
1(
#1300000
0(
#1305000
b101 \
b1010000000000000 X
b100 Z
1(
#1310000
0(
#1315000
b0 K
b0 b
b0 c
b0 g
b0 I
b0 r
b0 d
b0 h
b0 s
b0 v
b0 e
b0 i
b0 t
b0 w
b0 f
b0 j
b0 u
b0 x
b110 \
b0 a
b0 q
b101 Z
b1000000000000 ]
b0 [
1(
#1320000
0(
#1325000
b0 \
b110 Z
1(
#1330000
0(
#1335000
b11 B
b0 Z
19
b1010000000000000 7
b1010000000000000 `
1(
#1340000
0(
#1345000
b100 B
b11 @
09
18
1(
#1350000
0(
#1355000
b1 5"
b100 @
1F
1(
#1360000
0(
#1365000
b10 $"
b10 ;"
b10 <"
b10 @"
b101 ""
b101 K"
b10 ="
b10 A"
b101 L"
b101 O"
b1 %"
b1 E"
b10 >"
b10 B"
b101 M"
b101 P"
b1 D"
b1 I"
b10 ?"
b1 C"
b101 N"
b101 Q"
b101 :"
b101 J"
b10 5"
0F
b101 4"
05
b1 3"
1(
#1370000
0(
#1375000
b11 5"
b10 3"
b0 1"
b101010101010101 6"
1(
#1380000
0(
#1385000
b100 5"
b10 8"
b1 7"
b11 3"
1(
#1390000
0(
#1395000
b101 5"
b100 3"
b1010101010101010 1"
1(
#1400000
0(
#1405000
b1 $"
b1 ;"
b1 <"
b1 @"
b1 ""
b1 K"
b1 ="
b1 A"
b1 L"
b1 O"
b1 >"
b1 B"
b0 %"
b0 E"
b1 M"
b1 P"
b1 ?"
b0 D"
b0 I"
b1 N"
b1 Q"
b1 :"
b1 J"
b10 5"
b1110001110001 6"
b1 4"
b101 3"
1(
#1410000
0(
#1415000
b11 5"
b10 3"
1(
#1420000
0(
#1425000
b100 5"
b1 8"
b0 7"
b11 3"
1(
#1430000
0(
#1435000
b101 5"
b100 3"
b1100011100011011 1"
1(
#1440000
0(
#1445000
b0 $"
b0 ;"
b0 <"
b0 @"
b0 ""
b0 K"
b0 ="
b0 A"
b0 L"
b0 O"
b0 >"
b0 B"
b0 M"
b0 P"
b0 ?"
b0 C"
b0 N"
b0 Q"
b0 :"
b0 J"
b110 5"
b100101111010 6"
b0 4"
b101 3"
1(
#1450000
0(
#1455000
b0 5"
b110 3"
1(
#1460000
0(
#1465000
b101 B
16
b1100011100011011 4
b1100011100011011 9"
b0 3"
1(
#1470000
0(
#1475000
b0 B
06
15
b101 @
1(
#1480000
0(
#1485000
1$
b1100011100011011 !
b1100011100011011 D
b1010000000000000 "
b1010000000000000 C
b0 @
1(
#1490000
0(
#1495000
0$
b11100011100011 Z"
b110000000000000 Y"
b110 ["
b101 .
b101 0
b101 /
1(
#1500000
0(
#1505000
b110 A
b110 H
b110 !"
0#
b1 B
1+
b110 )
b110 3
1(
#1510000
0(
#1515000
b1 @
1#
b10 B
0+
1(
#1520000
0(
#1525000
b1 \
1E
b10 @
1(
#1530000
0(
#1535000
b11 c
b11 g
b110 I
b110 r
b11 d
b11 h
b110 s
b110 v
b10 L
b10 l
b11 e
b11 i
b110 t
b110 w
b1 k
b1 p
b11 f
b10 j
b110 u
b110 x
b110 a
b110 q
b10 \
b1 Z
b110 [
08
0E
1(
#1540000
0(
#1545000
b11 \
b0 X
b1000000000000000 ]
b10 Z
1(
#1550000
0(
#1555000
b100 \
b11 Z
b0 _
b11 ^
1(
#1560000
0(
#1565000
b101 \
b100 Z
1(
#1570000
0(
#1575000
b11 I
b11 r
b11 s
b11 v
b1 L
b1 l
b11 t
b11 w
b0 k
b0 p
b11 f
b11 j
b11 u
b11 x
b10 \
b11 a
b11 q
b101 Z
b100000000000000 ]
b11 [
1(
#1580000
0(
#1585000
b11 \
b10 Z
1(
#1590000
0(
#1595000
b100 \
b11 Z
b1 _
b1 ^
1(
#1600000
0(
#1605000
b101 \
b100000000000000 X
b100 Z
1(
#1610000
0(
#1615000
b0 L
b0 l
b1 K
b1 b
b1 c
b1 g
b1 I
b1 r
b1 d
b1 h
b1 s
b1 v
b1 e
b1 i
b1 t
b1 w
b1 f
b1 j
b1 u
b1 x
b10 \
b1 a
b1 q
b101 Z
b10000000000000 ]
b1 [
1(
#1620000
0(
#1625000
b11 \
b10 Z
1(
#1630000
0(
#1635000
b100 \
b11 Z
b0 ^
1(
#1640000
0(
#1645000
b101 \
b110000000000000 X
b100 Z
1(
#1650000
0(
#1655000
b0 K
b0 b
b0 c
b0 g
b0 I
b0 r
b0 d
b0 h
b0 s
b0 v
b0 e
b0 i
b0 t
b0 w
b0 f
b0 j
b0 u
b0 x
b110 \
b0 a
b0 q
b101 Z
b1000000000000 ]
b0 [
1(
#1660000
0(
#1665000
b0 \
b110 Z
1(
#1670000
0(
#1675000
b11 B
b0 Z
19
b110000000000000 7
b110000000000000 `
1(
#1680000
0(
#1685000
b100 B
b11 @
09
18
1(
#1690000
0(
#1695000
b1 5"
b100 @
1F
1(
#1700000
0(
#1705000
b11 <"
b11 @"
b110 ""
b110 K"
b11 ="
b11 A"
b110 L"
b110 O"
b10 %"
b10 E"
b11 >"
b11 B"
b110 M"
b110 P"
b1 D"
b1 I"
b11 ?"
b10 C"
b110 N"
b110 Q"
b110 :"
b110 J"
b10 5"
0F
b110 4"
05
b1 3"
1(
#1710000
0(
#1715000
b11 5"
b10 3"
b0 1"
b101010101010101 6"
1(
#1720000
0(
#1725000
b100 5"
b0 8"
b10 7"
b11 3"
1(
#1730000
0(
#1735000
b101 5"
b100 3"
1(
#1740000
0(
#1745000
b10 $"
b10 ;"
b10 <"
b10 @"
b10 ""
b10 K"
b10 ="
b10 A"
b10 L"
b10 O"
b10 >"
b10 B"
b0 %"
b0 E"
b10 M"
b10 P"
b10 ?"
b0 D"
b0 I"
b10 N"
b10 Q"
b10 :"
b10 J"
b10 5"
b1110001110001 6"
b10 4"
b101 3"
1(
#1750000
0(
#1755000
b11 5"
b10 3"
1(
#1760000
0(
#1765000
b100 5"
b10 8"
b0 7"
b11 3"
1(
#1770000
0(
#1775000
b101 5"
b100 3"
b11100011100010 1"
1(
#1780000
0(
